"id","name","model_id:id","group_id:id","perm_read","perm_write","perm_create","perm_unlink"
access_kpi_manager,kpi.manager,l10n_mn_moncon_kpi.model_moncon_kpi,l10n_mn_moncon_kpi.group_kpi_manager,1,1,1,0
access_kpi_user,kpi.user,l10n_mn_moncon_kpi.model_moncon_kpi,l10n_mn_moncon_kpi.group_user,1,0,0,0
access_kpi_line_manager,kpi.line.manager,l10n_mn_moncon_kpi.model_moncon_kpi_line,l10n_mn_moncon_kpi.group_kpi_manager,1,1,1,0
access_kpi_line_user,kpi.line.user,l10n_mn_moncon_kpi.model_moncon_kpi_line,l10n_mn_moncon_kpi.group_user,1,0,0,0
access_kpi_line_hr_manager,kpi.manager,l10n_mn_moncon_kpi.model_moncon_kpi_line,l10n_mn_moncon_kpi.group_kpi_hr_manager,1,1,1,1
access_kpi_hr_manager,kpi.manager,l10n_mn_moncon_kpi.model_moncon_kpi,l10n_mn_moncon_kpi.group_kpi_hr_manager,1,1,1,1
access_kpi_line_payroll_manager,kpi.payroll.manager,l10n_mn_moncon_kpi.model_moncon_kpi_line,hr_payroll.group_hr_payroll_manager,0,1,0,0